^C:\USERS\MAGSHIMIM\DESKTOP\MAGSHIMIM1\כיתה יא\EKRONOTCOURSE\EKRONOTEXERCISES\EX6\DEBUGWORKSHOP\PASSWORD\PASSWORD.CPP
C:\USERS\MAGSHIMIM\DESKTOP\MAGSHIMIM1\כיתה יא\EKRONOTCOURSE\EKRONOTEXERCISES\EX6\DEBUGWORKSHOP\PASSWORD\DEBUG\VC143.PDB
C:\USERS\MAGSHIMIM\DESKTOP\MAGSHIMIM1\כיתה יא\EKRONOTCOURSE\EKRONOTEXERCISES\EX6\DEBUGWORKSHOP\PASSWORD\DEBUG\VC143.IDB
C:\USERS\MAGSHIMIM\DESKTOP\MAGSHIMIM1\כיתה יא\EKRONOTCOURSE\EKRONOTEXERCISES\EX6\DEBUGWORKSHOP\PASSWORD\DEBUG\PASSWORD.OBJ
